{"hash":"2811600f081004b4db755606ddc56d26463fd6f2","data":{"allBlogPost":{"pageInfo":{"totalPages":14,"currentPage":7,"totalItems":131},"edges":[{"node":{"path":"/about/64021a11/","id":"64021a11","name":"Washington Post","domain":"washingtonpost.com","latest_scan":{"grade":"B","timestamp":"2020-07-23T20:19:25.770504Z","hsts":false,"valid_https":true}}},{"node":{"path":"/about/5353abf8/","id":"5353abf8","name":"Time","domain":"time.com","latest_scan":{"grade":"B","timestamp":"2020-07-23T20:17:53.776981Z","hsts":false,"valid_https":true}}},{"node":{"path":"/about/b8afcc44/","id":"b8afcc44","name":"The Wall Street Journal","domain":"wsj.com","latest_scan":{"grade":"B","timestamp":"2020-07-23T20:17:33.774610Z","hsts":false,"valid_https":true}}},{"node":{"path":"/about/b34646b0/","id":"b34646b0","name":"The Toronto Star","domain":"thestar.com","latest_scan":{"grade":"B","timestamp":"2020-07-23T20:17:12.694437Z","hsts":false,"valid_https":true}}},{"node":{"path":"/about/0cc690c0/","id":"0cc690c0","name":"The Times","domain":"thetimes.co.uk","latest_scan":{"grade":"B","timestamp":"2020-07-23T20:17:05.355642Z","hsts":false,"valid_https":true}}},{"node":{"path":"/about/3eb6ea7e/","id":"3eb6ea7e","name":"The New York Times","domain":"nytimes.com","latest_scan":{"grade":"B","timestamp":"2020-07-23T20:16:40.472851Z","hsts":false,"valid_https":true}}},{"node":{"path":"/about/4e6103ee/","id":"4e6103ee","name":"The Indian Express","domain":"indianexpress.com","latest_scan":{"grade":"B","timestamp":"2020-07-23T20:16:07.720244Z","hsts":false,"valid_https":true}}},{"node":{"path":"/about/58a41606/","id":"58a41606","name":"The Independent","domain":"independent.co.uk","latest_scan":{"grade":"B","timestamp":"2020-07-23T20:15:58.613912Z","hsts":false,"valid_https":true}}},{"node":{"path":"/about/74be92c2/","id":"74be92c2","name":"The Hollywood Reporter","domain":"hollywoodreporter.com","latest_scan":{"grade":"B","timestamp":"2020-07-23T20:15:51.970134Z","hsts":false,"valid_https":true}}},{"node":{"path":"/about/779a52a2/","id":"779a52a2","name":"The Hindu","domain":"thehindu.com","latest_scan":{"grade":"B","timestamp":"2020-07-23T20:15:45.490894Z","hsts":false,"valid_https":true}}}]}},"context":{}}