{"hash":"2811600f081004b4db755606ddc56d26463fd6f2","data":{"allBlogPost":{"pageInfo":{"totalPages":14,"currentPage":5,"totalItems":131},"edges":[{"node":{"path":"/about/4fb1cac8/","id":"4fb1cac8","name":"Financial Times","domain":"ft.com","latest_scan":{"grade":"A-","timestamp":"2020-07-23T20:06:04.569795Z","hsts":true,"valid_https":true}}},{"node":{"path":"/about/3491af98/","id":"3491af98","name":"Computer Bild","domain":"computerbild.de","latest_scan":{"grade":"A-","timestamp":"2020-07-23T20:04:19.759164Z","hsts":true,"valid_https":true}}},{"node":{"path":"/about/4306e9c0/","id":"4306e9c0","name":"CNET","domain":"cnet.com","latest_scan":{"grade":"A-","timestamp":"2020-07-23T20:03:45.969069Z","hsts":true,"valid_https":true}}},{"node":{"path":"/about/33b444b4/","id":"33b444b4","name":"BuzzFeed","domain":"buzzfeed.com","latest_scan":{"grade":"A-","timestamp":"2020-07-23T20:02:45.672981Z","hsts":true,"valid_https":true}}},{"node":{"path":"/about/d3b332f8/","id":"d3b332f8","name":"Business Insider","domain":"businessinsider.com","latest_scan":{"grade":"A-","timestamp":"2020-07-23T20:02:38.801401Z","hsts":true,"valid_https":true}}},{"node":{"path":"/about/01f155ec/","id":"01f155ec","name":"Al Jazeera","domain":"aljazeera.com","latest_scan":{"grade":"A-","timestamp":"2020-07-23T20:01:03.483528Z","hsts":true,"valid_https":true}}},{"node":{"path":"/about/526acb0e/","id":"526acb0e","name":"Al Arabiya","domain":"alarabiya.net","latest_scan":{"grade":"A-","timestamp":"2020-07-23T20:00:51.059628Z","hsts":true,"valid_https":true}}},{"node":{"path":"/about/14246e3c/","id":"14246e3c","name":"Vanity Fair","domain":"vanityfair.com","latest_scan":{"grade":"B+","timestamp":"2020-07-23T20:18:44.061425Z","hsts":true,"valid_https":true}}},{"node":{"path":"/about/7b4a3fcd/","id":"7b4a3fcd","name":"Univision","domain":"univision.com","latest_scan":{"grade":"B+","timestamp":"2020-07-23T20:18:01.896935Z","hsts":true,"valid_https":true}}},{"node":{"path":"/about/0f5cf6bc/","id":"0f5cf6bc","name":"The New Yorker","domain":"newyorker.com","latest_scan":{"grade":"B+","timestamp":"2020-07-23T20:16:33.472319Z","hsts":true,"valid_https":true}}}]}},"context":{}}