{"hash":"3966512b33cc52fc9132e38e33223757a9302181","data":{"allBlogPost":{"pageInfo":{"totalPages":14,"currentPage":12,"totalItems":131},"edges":[{"node":{"path":"/about/5235ea62/","id":"5235ea62","name":"CBS News","domain":"cbsnews.com","latest_scan":{"grade":"B","timestamp":"2020-08-20T20:03:01.834226Z","hsts":false,"valid_https":true}}},{"node":{"path":"/about/71b7ab62/","id":"71b7ab62","name":"CBC.ca","domain":"cbc.ca","latest_scan":{"grade":"B","timestamp":"2020-08-20T20:02:54.659945Z","hsts":false,"valid_https":true}}},{"node":{"path":"/about/0a48d785/","id":"0a48d785","name":"Breitbart","domain":"breitbart.com","latest_scan":{"grade":"B","timestamp":"2020-08-20T20:02:28.703438Z","hsts":false,"valid_https":true}}},{"node":{"path":"/about/65414208/","id":"65414208","name":"Boston Globe","domain":"bostonglobe.com","latest_scan":{"grade":"B","timestamp":"2020-08-20T20:02:23.046203Z","hsts":false,"valid_https":true}}},{"node":{"path":"/about/b2475518/","id":"b2475518","name":"Bloomberg","domain":"bloomberg.com","latest_scan":{"grade":"B","timestamp":"2020-08-20T20:02:17.294294Z","hsts":false,"valid_https":true}}},{"node":{"path":"/about/7c6fa981/","id":"7c6fa981","name":"Bild","domain":"bild.de","latest_scan":{"grade":"B","timestamp":"2020-08-20T20:02:10.315006Z","hsts":false,"valid_https":true}}},{"node":{"path":"/about/6938b68d/","id":"6938b68d","name":"Axios","domain":"axios.com","latest_scan":{"grade":"B","timestamp":"2020-08-20T20:01:58.419788Z","hsts":false,"valid_https":true}}},{"node":{"path":"/about/2a64297e/","id":"2a64297e","name":"Associated Press","domain":"ap.org","latest_scan":{"grade":"B","timestamp":"2020-08-20T20:01:41.803354Z","hsts":false,"valid_https":true}}},{"node":{"path":"/about/1803c5f2/","id":"1803c5f2","name":"Ars Technica","domain":"arstechnica.com","latest_scan":{"grade":"B","timestamp":"2020-08-20T20:01:26.644710Z","hsts":false,"valid_https":true}}},{"node":{"path":"/about/29fa5600/","id":"29fa5600","name":"Andhra Jyothi","domain":"andhrajyothy.com","latest_scan":{"grade":"B","timestamp":"2020-08-20T20:01:18.423115Z","hsts":false,"valid_https":true}}}]}},"context":{}}