{"hash":"16b936112066ed2f001e69f302e35935ce8cf729","data":{"allBlogPost":{"pageInfo":{"totalPages":14,"currentPage":9,"totalItems":131},"edges":[{"node":{"path":"/about/0e51ec28/","id":"0e51ec28","name":"Onet","domain":"onet.pl","latest_scan":{"grade":"B","timestamp":"2020-07-20T20:10:37.099728Z","hsts":false,"valid_https":true}}},{"node":{"path":"/about/4877d62c/","id":"4877d62c","name":"NJ.com","domain":"nj.com","latest_scan":{"grade":"B","timestamp":"2020-07-20T20:10:07.464838Z","hsts":false,"valid_https":true}}},{"node":{"path":"/about/46db9c04/","id":"46db9c04","name":"Neue Zürcher Zeitung","domain":"nzz.ch","latest_scan":{"grade":"B","timestamp":"2020-07-20T20:09:46.497366Z","hsts":false,"valid_https":true}}},{"node":{"path":"/about/4af3be10/","id":"4af3be10","name":"NBC News","domain":"nbcnews.com","latest_scan":{"grade":"B","timestamp":"2020-07-20T20:09:33.110475Z","hsts":false,"valid_https":true}}},{"node":{"path":"/about/2f2de252/","id":"2f2de252","name":"MSNBC","domain":"msnbc.com","latest_scan":{"grade":"B","timestamp":"2020-07-20T20:09:26.863412Z","hsts":false,"valid_https":true}}},{"node":{"path":"/about/3eb9501c/","id":"3eb9501c","name":"Mic","domain":"mic.com","latest_scan":{"grade":"B","timestamp":"2020-07-20T20:09:16.315003Z","hsts":false,"valid_https":true}}},{"node":{"path":"/about/1a59dc98/","id":"1a59dc98","name":"Mathrubhumi","domain":"mathrubhumi.com","latest_scan":{"grade":"B","timestamp":"2020-07-20T20:09:10.590787Z","hsts":false,"valid_https":true}}},{"node":{"path":"/about/7ddd18da/","id":"7ddd18da","name":"Mashable","domain":"mashable.com","latest_scan":{"grade":"B","timestamp":"2020-07-20T20:09:01.988975Z","hsts":false,"valid_https":true}}},{"node":{"path":"/about/3837424c/","id":"3837424c","name":"Mail Online","domain":"dailymail.co.uk","latest_scan":{"grade":"B","timestamp":"2020-07-20T20:08:48.705782Z","hsts":false,"valid_https":true}}},{"node":{"path":"/about/67c22342/","id":"67c22342","name":"Los Angeles Times","domain":"latimes.com","latest_scan":{"grade":"B","timestamp":"2020-07-20T20:08:41.419419Z","hsts":false,"valid_https":true}}}]}},"context":{}}