{"hash":"3966512b33cc52fc9132e38e33223757a9302181","data":{"allBlogPost":{"pageInfo":{"totalPages":14,"currentPage":3,"totalItems":131},"edges":[{"node":{"path":"/about/405feeb0/","id":"405feeb0","name":"The Guardian","domain":"theguardian.com","latest_scan":{"grade":"A-","timestamp":"2020-08-20T20:15:18.631783Z","hsts":true,"valid_https":true}}},{"node":{"path":"/about/70c60338/","id":"70c60338","name":"The Daily Beast","domain":"thedailybeast.com","latest_scan":{"grade":"A-","timestamp":"2020-08-20T20:15:01.894983Z","hsts":true,"valid_https":true}}},{"node":{"path":"/about/5e01ac7a/","id":"5e01ac7a","name":"The Age","domain":"theage.com.au","latest_scan":{"grade":"A-","timestamp":"2020-08-20T20:14:47.437461Z","hsts":true,"valid_https":true}}},{"node":{"path":"/about/1d2d3772/","id":"1d2d3772","name":"TechCrunch","domain":"techcrunch.com","latest_scan":{"grade":"A-","timestamp":"2020-08-20T20:14:25.921088Z","hsts":true,"valid_https":true}}},{"node":{"path":"/about/04179334/","id":"04179334","name":"Süddeutsche.de","domain":"sueddeutsche.de","latest_scan":{"grade":"A-","timestamp":"2020-08-20T20:14:08.999527Z","hsts":true,"valid_https":true}}},{"node":{"path":"/about/7c68ca40/","id":"7c68ca40","name":"Stern","domain":"stern.de","latest_scan":{"grade":"A-","timestamp":"2020-08-20T20:13:49.835860Z","hsts":true,"valid_https":true}}},{"node":{"path":"/about/d44681de/","id":"d44681de","name":"Slate Magazine","domain":"slate.com","latest_scan":{"grade":"A-","timestamp":"2020-08-20T20:13:18.796649Z","hsts":true,"valid_https":true}}},{"node":{"path":"/about/584b6add/","id":"584b6add","name":"Quartz","domain":"qz.com","latest_scan":{"grade":"A-","timestamp":"2020-08-20T20:11:53.608182Z","hsts":true,"valid_https":true}}},{"node":{"path":"/about/1d6bbec4/","id":"1d6bbec4","name":"ProPublica","domain":"propublica.org","latest_scan":{"grade":"A-","timestamp":"2020-08-20T20:11:49.134261Z","hsts":true,"valid_https":true}}},{"node":{"path":"/about/73ff7560/","id":"73ff7560","name":"NPR","domain":"npr.org","latest_scan":{"grade":"A-","timestamp":"2020-08-20T20:11:01.139700Z","hsts":true,"valid_https":true}}}]}},"context":{}}