{"hash":"16b936112066ed2f001e69f302e35935ce8cf729","data":{"allBlogPost":{"pageInfo":{"totalPages":14,"currentPage":13,"totalItems":131},"edges":[{"node":{"path":"/about/87adf7a8/","id":"87adf7a8","name":"Ars Technica","domain":"arstechnica.com","latest_scan":{"grade":"B","timestamp":"2020-07-20T20:01:33.278828Z","hsts":false,"valid_https":true}}},{"node":{"path":"/about/3026d956/","id":"3026d956","name":"Andhra Jyothi","domain":"andhrajyothy.com","latest_scan":{"grade":"B","timestamp":"2020-07-20T20:01:24.708492Z","hsts":false,"valid_https":true}}},{"node":{"path":"/about/6134133e/","id":"6134133e","name":"Anandabazar","domain":"anandabazar.com","latest_scan":{"grade":"B","timestamp":"2020-07-20T20:01:10.711025Z","hsts":false,"valid_https":true}}},{"node":{"path":"/about/784a196a/","id":"784a196a","name":"ABC News","domain":"abcnews.go.com","latest_scan":{"grade":"B","timestamp":"2020-07-20T20:00:42.490427Z","hsts":false,"valid_https":true}}},{"node":{"path":"/about/5cad8ad2/","id":"5cad8ad2","name":"ABC.es","domain":"abc.es","latest_scan":{"grade":"B","timestamp":"2020-07-20T20:00:21.409218Z","hsts":false,"valid_https":true}}},{"node":{"path":"/about/a05bdbd4/","id":"a05bdbd4","name":"SHINE","domain":"shine.cn","latest_scan":{"grade":"C","timestamp":"2020-07-20T20:12:21.895665Z","hsts":false,"valid_https":true}}},{"node":{"path":"/about/5ffa20d0/","id":"5ffa20d0","name":"Global Times","domain":"globaltimes.cn","latest_scan":{"grade":"C","timestamp":"2020-07-20T20:06:40.302240Z","hsts":false,"valid_https":true}}},{"node":{"path":"/about/6ddd1258/","id":"6ddd1258","name":"Drudge Report","domain":"drudgereport.com","latest_scan":{"grade":"C","timestamp":"2020-07-20T20:04:50.509083Z","hsts":true,"valid_https":true}}},{"node":{"path":"/about/575dbe38/","id":"575dbe38","name":"Xinhua News Agency","domain":"xinhuanet.com","latest_scan":{"grade":"F","timestamp":"2020-07-20T20:18:40.589748Z","hsts":false,"valid_https":false}}},{"node":{"path":"/about/38d75448/","id":"38d75448","name":"U.S. News & World Report","domain":"usnews.com","latest_scan":{"grade":"F","timestamp":"2020-07-20T20:17:08.778345Z","hsts":false,"valid_https":false}}}]}},"context":{}}