{"hash":"16b936112066ed2f001e69f302e35935ce8cf729","data":{"allBlogPost":{"pageInfo":{"totalPages":14,"currentPage":2,"totalItems":131},"edges":[{"node":{"path":"/about/bf93c790/","id":"bf93c790","name":"ComputerBase","domain":"computerbase.de","latest_scan":{"grade":"A+","timestamp":"2020-07-20T20:03:56.601956Z","hsts":true,"valid_https":true}}},{"node":{"path":"/about/261c05f8/","id":"261c05f8","name":"Center for Public Integrity","domain":"publicintegrity.org","latest_scan":{"grade":"A+","timestamp":"2020-07-20T20:02:58.604381Z","hsts":true,"valid_https":true}}},{"node":{"path":"/about/64db8d84/","id":"64db8d84","name":"Sky News","domain":"news.sky.com","latest_scan":{"grade":"A","timestamp":"2020-07-20T20:12:27.420851Z","hsts":true,"valid_https":true}}},{"node":{"path":"/about/08567e86/","id":"08567e86","name":"Wired","domain":"wired.com","latest_scan":{"grade":"A-","timestamp":"2020-07-20T20:18:09.264509Z","hsts":true,"valid_https":true}}},{"node":{"path":"/about/12228460/","id":"12228460","name":"Vox","domain":"vox.com","latest_scan":{"grade":"A-","timestamp":"2020-07-20T20:17:27.672289Z","hsts":true,"valid_https":true}}},{"node":{"path":"/about/49c9cac8/","id":"49c9cac8","name":"Vice","domain":"vice.com","latest_scan":{"grade":"A-","timestamp":"2020-07-20T20:17:21.784580Z","hsts":true,"valid_https":true}}},{"node":{"path":"/about/a635271e/","id":"a635271e","name":"USA Today","domain":"usatoday.com","latest_scan":{"grade":"A-","timestamp":"2020-07-20T20:16:42.805129Z","hsts":true,"valid_https":true}}},{"node":{"path":"/about/caa84536/","id":"caa84536","name":"The Weather Channel","domain":"weather.com","latest_scan":{"grade":"A-","timestamp":"2020-07-20T20:16:21.263093Z","hsts":true,"valid_https":true}}},{"node":{"path":"/about/e3ab73d8/","id":"e3ab73d8","name":"The Verge","domain":"theverge.com","latest_scan":{"grade":"A-","timestamp":"2020-07-20T20:16:07.401636Z","hsts":true,"valid_https":true}}},{"node":{"path":"/about/147a2bb4/","id":"147a2bb4","name":"The Sydney Morning Herald","domain":"smh.com.au","latest_scan":{"grade":"A-","timestamp":"2020-07-20T20:15:37.491789Z","hsts":true,"valid_https":true}}}]}},"context":{}}