{"hash":"3966512b33cc52fc9132e38e33223757a9302181","data":{"allBlogPost":{"pageInfo":{"totalPages":14,"currentPage":1,"totalItems":131},"edges":[{"node":{"path":"/about/4f85530c/","id":"4f85530c","name":"The Undefeated","domain":"theundefeated.com","latest_scan":{"grade":"A+","timestamp":"2020-08-20T20:17:06.692769Z","hsts":true,"valid_https":true}}},{"node":{"path":"/about/ec3289f8/","id":"ec3289f8","name":"The Outline","domain":"theoutline.com","latest_scan":{"grade":"A+","timestamp":"2020-08-20T20:16:19.125440Z","hsts":true,"valid_https":true}}},{"node":{"path":"/about/18678f57/","id":"18678f57","name":"The Intercept","domain":"theintercept.com","latest_scan":{"grade":"A+","timestamp":"2020-08-20T20:15:52.036415Z","hsts":true,"valid_https":true}}},{"node":{"path":"/about/77a3f738/","id":"77a3f738","name":"Techdirt","domain":"techdirt.com","latest_scan":{"grade":"A+","timestamp":"2020-08-20T20:14:32.315565Z","hsts":true,"valid_https":true}}},{"node":{"path":"/about/7b7eeea1/","id":"7b7eeea1","name":"Scroll.in","domain":"scroll.in","latest_scan":{"grade":"A+","timestamp":"2020-08-20T20:12:46.938082Z","hsts":true,"valid_https":true}}},{"node":{"path":"/about/340a557e/","id":"340a557e","name":"Marshall Project","domain":"themarshallproject.org","latest_scan":{"grade":"A+","timestamp":"2020-08-20T20:09:42.804616Z","hsts":true,"valid_https":true}}},{"node":{"path":"/about/53fb1abe/","id":"53fb1abe","name":"Le Temps","domain":"letemps.ch","latest_scan":{"grade":"A+","timestamp":"2020-08-20T20:09:16.396404Z","hsts":true,"valid_https":true}}},{"node":{"path":"/about/4137f2cc/","id":"4137f2cc","name":"Infobae","domain":"infobae.com","latest_scan":{"grade":"A+","timestamp":"2020-08-20T20:08:21.611571Z","hsts":true,"valid_https":true}}},{"node":{"path":"/about/cb1bd854/","id":"cb1bd854","name":"Gizmodo Media","domain":"gizmodo.com","latest_scan":{"grade":"A+","timestamp":"2020-08-20T20:07:02.794919Z","hsts":true,"valid_https":true}}},{"node":{"path":"/about/6ec64cc0/","id":"6ec64cc0","name":"FiveThirtyEight","domain":"fivethirtyeight.com","latest_scan":{"grade":"A+","timestamp":"2020-08-20T20:06:13.502201Z","hsts":true,"valid_https":true}}}]}},"context":{}}