{"hash":"3966512b33cc52fc9132e38e33223757a9302181","data":{"allBlogPost":{"pageInfo":{"totalPages":14,"currentPage":4,"totalItems":131},"edges":[{"node":{"path":"/about/6cc16f4a/","id":"6cc16f4a","name":"Norwegian Broadcasting","domain":"nrk.no","latest_scan":{"grade":"A-","timestamp":"2020-08-20T20:10:55.615132Z","hsts":true,"valid_https":true}}},{"node":{"path":"/about/560480b8/","id":"560480b8","name":"New York Post","domain":"nypost.com","latest_scan":{"grade":"A-","timestamp":"2020-08-20T20:10:42.026560Z","hsts":true,"valid_https":true}}},{"node":{"path":"/about/8ad67706/","id":"8ad67706","name":"Le Monde.fr","domain":"lemonde.fr","latest_scan":{"grade":"A-","timestamp":"2020-08-20T20:09:11.899621Z","hsts":true,"valid_https":true}}},{"node":{"path":"/about/25b9b8f8/","id":"25b9b8f8","name":"Jornal O Globo","domain":"oglobo.globo.com","latest_scan":{"grade":"A-","timestamp":"2020-08-20T20:08:32.097418Z","hsts":true,"valid_https":true}}},{"node":{"path":"/about/9664d8fc/","id":"9664d8fc","name":"India Times","domain":"indiatimes.com","latest_scan":{"grade":"A-","timestamp":"2020-08-20T20:08:16.796851Z","hsts":true,"valid_https":true}}},{"node":{"path":"/about/5536c444/","id":"5536c444","name":"Huffington Post","domain":"huffingtonpost.com","latest_scan":{"grade":"A-","timestamp":"2020-08-20T20:08:03.094852Z","hsts":true,"valid_https":true}}},{"node":{"path":"/about/0a924d80/","id":"0a924d80","name":"Hong Kong Free Press","domain":"hongkongfp.com","latest_scan":{"grade":"A-","timestamp":"2020-08-20T20:07:56.839636Z","hsts":true,"valid_https":true}}},{"node":{"path":"/about/62f801e4/","id":"62f801e4","name":"Heise Online","domain":"heise.de","latest_scan":{"grade":"A-","timestamp":"2020-08-20T20:07:45.109029Z","hsts":true,"valid_https":true}}},{"node":{"path":"/about/0755e1a0/","id":"0755e1a0","name":"Golem.de","domain":"golem.de","latest_scan":{"grade":"A-","timestamp":"2020-08-20T20:07:32.913136Z","hsts":true,"valid_https":true}}},{"node":{"path":"/about/50aa8519/","id":"50aa8519","name":"France 24","domain":"france24.com","latest_scan":{"grade":"A-","timestamp":"2020-08-20T20:06:58.526977Z","hsts":true,"valid_https":true}}}]}},"context":{}}