{"hash":"ed10e21b37ab22168a04fc6108062113ee067aab","data":{"allBlogPost":{"pageInfo":{"totalPages":14,"currentPage":6,"totalItems":131},"edges":[{"node":{"path":"/about/103a18fc/","id":"103a18fc","name":"The New Yorker","domain":"newyorker.com","latest_scan":{"grade":"B+","timestamp":"2020-08-13T20:15:47.354399Z","hsts":true,"valid_https":true}}},{"node":{"path":"/about/b62bf000/","id":"b62bf000","name":"The Hill","domain":"thehill.com","latest_scan":{"grade":"B+","timestamp":"2020-08-13T20:15:01.773570Z","hsts":true,"valid_https":true}}},{"node":{"path":"/about/5f5b00df/","id":"5f5b00df","name":"The Globe and Mail","domain":"theglobeandmail.com","latest_scan":{"grade":"B+","timestamp":"2020-08-13T20:14:53.446334Z","hsts":true,"valid_https":true}}},{"node":{"path":"/about/2d2be979/","id":"2d2be979","name":"Taz","domain":"taz.de","latest_scan":{"grade":"B+","timestamp":"2020-08-13T20:14:02.165274Z","hsts":true,"valid_https":true}}},{"node":{"path":"/about/0500fbe4/","id":"0500fbe4","name":"Repubblica.it","domain":"repubblica.it","latest_scan":{"grade":"B+","timestamp":"2020-08-13T20:11:52.776609Z","hsts":true,"valid_https":true}}},{"node":{"path":"/about/4d006b78/","id":"4d006b78","name":"Newsweek","domain":"newsweek.com","latest_scan":{"grade":"B+","timestamp":"2020-08-13T20:10:23.438621Z","hsts":true,"valid_https":true}}},{"node":{"path":"/about/4ace4fc4/","id":"4ace4fc4","name":"Fox News","domain":"foxnews.com","latest_scan":{"grade":"B+","timestamp":"2020-08-13T20:06:40.287879Z","hsts":true,"valid_https":true}}},{"node":{"path":"/about/bb4a6a78/","id":"bb4a6a78","name":"Die ZEIT","domain":"zeit.de","latest_scan":{"grade":"B+","timestamp":"2020-08-13T20:04:38.086941Z","hsts":true,"valid_https":true}}},{"node":{"path":"/about/7ee22f90/","id":"7ee22f90","name":"ТАСС","domain":"tass.ru","latest_scan":{"grade":"B","timestamp":"2020-08-13T20:20:02.378192Z","hsts":false,"valid_https":true}}},{"node":{"path":"/about/e618b1d6/","id":"e618b1d6","name":"Wirtualna Polska","domain":"wp.pl","latest_scan":{"grade":"B","timestamp":"2020-08-13T20:19:28.739988Z","hsts":false,"valid_https":true}}}]}},"context":{}}