{"hash":"16b936112066ed2f001e69f302e35935ce8cf729","data":{"allBlogPost":{"pageInfo":{"totalPages":14,"currentPage":14,"totalItems":131},"edges":[{"node":{"path":"/about/72cedee6/","id":"72cedee6","name":"People's Daily","domain":"people.cn","latest_scan":{"grade":"F","timestamp":"2020-07-20T20:10:45.564382Z","hsts":false,"valid_https":null}}}]}},"context":{}}