{"hash":"2811600f081004b4db755606ddc56d26463fd6f2","data":{"allBlogPost":{"pageInfo":{"totalPages":14,"currentPage":10,"totalItems":131},"edges":[{"node":{"path":"/about/29677e44/","id":"29677e44","name":"La Vanguardia","domain":"lavanguardia.com","latest_scan":{"grade":"B","timestamp":"2020-07-23T20:08:56.260754Z","hsts":false,"valid_https":true}}},{"node":{"path":"/about/6ebbe62f/","id":"6ebbe62f","name":"La Stampa","domain":"lastampa.it","latest_scan":{"grade":"B","timestamp":"2020-07-23T20:08:47.700986Z","hsts":false,"valid_https":true}}},{"node":{"path":"/about/23193421/","id":"23193421","name":"La Gazzetta dello Sport","domain":"gazzetta.it","latest_scan":{"grade":"B","timestamp":"2020-07-23T20:08:39.168924Z","hsts":false,"valid_https":true}}},{"node":{"path":"/about/2ac79030/","id":"2ac79030","name":"Il Sole 24 Ore","domain":"ilsole24ore.com","latest_scan":{"grade":"B","timestamp":"2020-07-23T20:08:04.284707Z","hsts":false,"valid_https":true}}},{"node":{"path":"/about/4cc387e8/","id":"4cc387e8","name":"Hindustan Times","domain":"hindustantimes.com","latest_scan":{"grade":"B","timestamp":"2020-07-23T20:07:36.864592Z","hsts":false,"valid_https":true}}},{"node":{"path":"/about/17d7a29a/","id":"17d7a29a","name":"Fortune","domain":"fortune.com","latest_scan":{"grade":"B","timestamp":"2020-07-23T20:06:33.785734Z","hsts":false,"valid_https":true}}},{"node":{"path":"/about/205dc834/","id":"205dc834","name":"Forbes","domain":"forbes.com","latest_scan":{"grade":"B","timestamp":"2020-07-23T20:06:26.500516Z","hsts":false,"valid_https":true}}},{"node":{"path":"/about/3bec199e/","id":"3bec199e","name":"Focus","domain":"focus.de","latest_scan":{"grade":"B","timestamp":"2020-07-23T20:06:17.998378Z","hsts":false,"valid_https":true}}},{"node":{"path":"/about/28e28e5a/","id":"28e28e5a","name":"FAZ.NET","domain":"faz.net","latest_scan":{"grade":"B","timestamp":"2020-07-23T20:05:54.986561Z","hsts":false,"valid_https":true}}},{"node":{"path":"/about/3921ae18/","id":"3921ae18","name":"Euronews","domain":"euronews.com","latest_scan":{"grade":"B","timestamp":"2020-07-23T20:05:46.579622Z","hsts":false,"valid_https":true}}}]}},"context":{}}