{"hash":"16b936112066ed2f001e69f302e35935ce8cf729","data":{"allBlogPost":{"pageInfo":{"totalPages":14,"currentPage":8,"totalItems":131},"edges":[{"node":{"path":"/about/23e9d224/","id":"23e9d224","name":"The Economist","domain":"economist.com","latest_scan":{"grade":"B","timestamp":"2020-07-20T20:14:04.438775Z","hsts":false,"valid_https":true}}},{"node":{"path":"/about/79108908/","id":"79108908","name":"The Atlantic","domain":"theatlantic.com","latest_scan":{"grade":"B","timestamp":"2020-07-20T20:13:51.013071Z","hsts":false,"valid_https":true}}},{"node":{"path":"/about/2bf4b346/","id":"2bf4b346","name":"Stern","domain":"stern.de","latest_scan":{"grade":"B","timestamp":"2020-07-20T20:13:01.706667Z","hsts":false,"valid_https":true}}},{"node":{"path":"/about/223dc684/","id":"223dc684","name":"Star Tribune","domain":"startribune.com","latest_scan":{"grade":"B","timestamp":"2020-07-20T20:12:54.111676Z","hsts":false,"valid_https":true}}},{"node":{"path":"/about/2778dcf6/","id":"2778dcf6","name":"Spiegel Online","domain":"spiegel.de","latest_scan":{"grade":"B","timestamp":"2020-07-20T20:12:45.966831Z","hsts":false,"valid_https":true}}},{"node":{"path":"/about/be1bcfa4/","id":"be1bcfa4","name":"SFGate","domain":"sfgate.com","latest_scan":{"grade":"B","timestamp":"2020-07-20T20:12:03.866989Z","hsts":false,"valid_https":true}}},{"node":{"path":"/about/21ca21b0/","id":"21ca21b0","name":"Salon","domain":"salon.com","latest_scan":{"grade":"B","timestamp":"2020-07-20T20:11:44.990933Z","hsts":false,"valid_https":true}}},{"node":{"path":"/about/69d08d7a/","id":"69d08d7a","name":"Reuters","domain":"reuters.com","latest_scan":{"grade":"B","timestamp":"2020-07-20T20:11:38.701552Z","hsts":false,"valid_https":true}}},{"node":{"path":"/about/0beba2cd/","id":"0beba2cd","name":"Pravda Report","domain":"pravdareport.com","latest_scan":{"grade":"B","timestamp":"2020-07-20T20:11:04.103281Z","hsts":false,"valid_https":true}}},{"node":{"path":"/about/0092ba8c/","id":"0092ba8c","name":"Politico","domain":"politico.com","latest_scan":{"grade":"B","timestamp":"2020-07-20T20:10:52.270398Z","hsts":false,"valid_https":true}}}]}},"context":{}}