{"hash":"2811600f081004b4db755606ddc56d26463fd6f2","data":{"allBlogPost":{"pageInfo":{"totalPages":14,"currentPage":11,"totalItems":131},"edges":[{"node":{"path":"/about/5be0c938/","id":"5be0c938","name":"ESPN","domain":"espn.com","latest_scan":{"grade":"B","timestamp":"2020-07-23T20:05:36.490084Z","hsts":false,"valid_https":true}}},{"node":{"path":"/about/3cfc256e/","id":"3cfc256e","name":"El Periódico","domain":"elperiodico.com","latest_scan":{"grade":"B","timestamp":"2020-07-23T20:05:30.166151Z","hsts":false,"valid_https":true}}},{"node":{"path":"/about/604f3434/","id":"604f3434","name":"EL PAÍS","domain":"elpais.com","latest_scan":{"grade":"B","timestamp":"2020-07-23T20:05:20.665142Z","hsts":false,"valid_https":true}}},{"node":{"path":"/about/3dc7ebcd/","id":"3dc7ebcd","name":"El Mundo","domain":"elmundo.es","latest_scan":{"grade":"B","timestamp":"2020-07-23T20:05:10.972782Z","hsts":false,"valid_https":true}}},{"node":{"path":"/about/4f34065e/","id":"4f34065e","name":"DNA India","domain":"dnaindia.com","latest_scan":{"grade":"B","timestamp":"2020-07-23T20:04:53.452157Z","hsts":false,"valid_https":true}}},{"node":{"path":"/about/7323dbe0/","id":"7323dbe0","name":"Die Welt","domain":"welt.de","latest_scan":{"grade":"B","timestamp":"2020-07-23T20:04:36.374760Z","hsts":false,"valid_https":true}}},{"node":{"path":"/about/491c2e14/","id":"491c2e14","name":"Corriere della Sera","domain":"corriere.it","latest_scan":{"grade":"B","timestamp":"2020-07-23T20:04:27.802161Z","hsts":false,"valid_https":true}}},{"node":{"path":"/about/75c97bf2/","id":"75c97bf2","name":"CNN","domain":"cnn.com","latest_scan":{"grade":"B","timestamp":"2020-07-23T20:03:52.664017Z","hsts":false,"valid_https":true}}},{"node":{"path":"/about/22ec4796/","id":"22ec4796","name":"CNBC","domain":"cnbc.com","latest_scan":{"grade":"B","timestamp":"2020-07-23T20:03:39.259103Z","hsts":false,"valid_https":true}}},{"node":{"path":"/about/a154ee78/","id":"a154ee78","name":"CHIP","domain":"chip.de","latest_scan":{"grade":"B","timestamp":"2020-07-23T20:03:31.894461Z","hsts":false,"valid_https":true}}}]}},"context":{}}